{
  "count": 42,
  "next": "https://api.bounties.network/fulfillment/?bounty=1511&limit=1&offset=1&ordering=-fulfillment_created&platform__in=bounties-network",
  "previous": null,
  "results": [
    {
      "id": 42,
      "bounty_data": {
        "id": 1511,
        "bounty_id": 1511,
        "bountyStage": 1,
        "title": "Bounties for the Oceans: Philippines Pilot - Sustained, Verifiable Plastic Cleanups",
        "usd_price": 4.005988358086,
        "tokenSymbol": "ETH",
        "tokenDecimals": 18,
        "fulfillmentAmount": "44000000000000000",
        "calculated_fulfillmentAmount": "0.044000000000000000000000000000",
        "user": {
          ...
        }
      },
      "fulfiller_review": null,
      "issuer_review": null,
      "user": {
        ...
      },
      "fulfillment_id": 41,
      "created": "2018-12-09T10:32:16.834730",
      "modified": "2018-12-09T10:32:16.834746",
      "fulfillment_created": "2018-12-09T10:32:00",
      "data": "QmcwY57gT1CEcTEQD2rHiWRWLfYbb5U8UxCKL3JmHied42",
      "accepted": false,
      "accepted_date": null,
      "usd_price": null,
      "fulfiller": "0x4444444444444444444422222222222222222222",
      "fulfiller_name": "Arthur Dent",
      "fulfiller_email": "arthur.dent@example.com",
      "fulfiller_githubUsername": "",
      "fulfiller_address": "",
      "description": "",
      "url": "",
      "sourceFileName": "IMG_44444444_222222.jpg",
      "sourceFileHash": "",
      "sourceDirectoryHash": "QmeC9QGVq53Sio3SBGqs9skuqoLtHS1iis5NQTx5A4oH42",
      "platform": "bounties-network",
      "schemaVersion": "0.1",
      "schemaName": "standardSchema",
      "bounty": 1511
    }
  ]
}
