{
  "count": 244,
  "next": "https://api.bounties.network/reviews/?limit=42&offset=42",
  "previous": null,
  "results": [
    {
      "id": 1,
      "reviewer": {
        "id": 48,
        "public_address": "0x54becc7560a7be76d72ed76a1f5fee6c5a2a7ab6",
        "name": "Twoflower",
        "email": "twoflower@example.com",
        "wants_marketing_emails": false,
        "dismissed_signup_prompt": null,
        "organization": "",
        "small_profile_image_url": "https://assets.bounties.network/production/userimages/0x54becc7560a7be76d72ed76a1f5fee6c5a2a7ab6-142.jpg",
        "large_profile_image_url": "https://assets.bounties.network/production/userimages/0x54becc7560a7be76d72ed76a1f5fee6c5a2a7ab6-42.jpg",
        "page_preview": "https://assets.bounties.network/production/profile_preview/0x54becc7560a7be76d72ed76a1f5fee6c5a2a7ab6-18cb4446-965f-47b9-a7ff-6a733eb00342.png",
        "website": "",
        "twitter": "",
        "github": "",
        "linkedin": "",
        "dribble": "",
        "created": "2018-10-19T00:07:13.243450",
        "edited": "2018-12-10T16:55:09.307209",
        "last_viewed": "2018-12-10T16:55:09.305338",
        "last_logged_in": "2018-12-03T10:04:25.722169",
        "ens_domain": "",
        "categories": [],
        "languages": [
          28
        ],
        "skills": [
          1
        ]
      },
      "reviewee": {
        "id": 78,
        "public_address": "0xe66f8c6ab127ecdfd5cbf031f74a584ad2fc4942",
        "name": "Rincewind",
        "email": "rincewind@example.com",
        "wants_marketing_emails": true,
        "dismissed_signup_prompt": null,
        "organization": "Unseen University",
        "small_profile_image_url": "https://assets.bounties.network/production/userimages/0xe66f8c6ab127ecdfd5cbf031f74a584ad2fc494b-242.jpg",
        "large_profile_image_url": "https://assets.bounties.network/production/userimages/0xe66f8c6ab127ecdfd5cbf031f74a584ad2fc494b-542.jpg",
        "page_preview": "https://assets.bounties.network/production/profile_preview/0xe66f8c6ab127ecdfd5cbf031f74a584ad2fc494b-890b595b-6cdd-4897-a8e9-4759c0807a42.png",
        "website": "",
        "twitter": "",
        "github": "",
        "linkedin": "",
        "dribble": "",
        "created": "2018-10-19T00:07:13.243450",
        "edited": "2018-12-11T23:25:26.817444",
        "last_viewed": "2018-12-11T23:25:26.814362",
        "last_logged_in": "2018-12-09T00:00:29.531964",
        "ens_domain": "",
        "categories": [],
        "languages": [
          28,
          29,
          35,
          56,
          112
        ],
        "skills": [
          2,
          3,
          4,
          5
        ]
      },
      "created": "2018-09-05T19:11:20.770816",
      "modified": "2018-09-05T19:11:20.770838",
      "rating": 5,
      "review": "Excellent guiding!",
      "platform": "bounties-network"
    },
    ...
]